2 Bootstrapping | Machine Learning for Environmental Science
…
birds <- read_csv("data/KillarneyBirds.csv")

## Rows: 31 Columns: 10
## ── Column specification ────────────────────────────────────────────────────────
## Delimiter: ","
## chr (1): Species
## dbl (9): Oak1, Oak2, Oak3, Yew, Sitka, Norway, Mixed, Patchy, Swampy
## 
## ℹ Use `spec()` to retrieve the full column specification for this data.
## ℹ Specify the column types or set `show_col_types = FALSE` to quiet this message.

birds

## # A tibble: 31 × 10
##    Species            Oak1  Oak2  Oak3   Yew Sitka Norway Mixed Patchy Swampy
##    <chr>             <dbl> <dbl> <dbl> <dbl> <dbl>  <dbl> <dbl>  <dbl>  <dbl>
##  1 Chaffinch            35    41    31     9    14     30    10     13     15
##  2 Robin                26    35    23    20    10     30    18     12     20
##  3 BlueTit              25    19    17    10     0      3     7      8      5
##  4 Goldcrest            21    27    17    21    30     65    15     22     11
##  5 Wren                 16     8     1     5     4     20    10     14     10
##  6 CoalTit              11     9     8    14     6     11     4      6      5
##  7 SpottedFlycatcher     6     4     0     0     0      0     1      3      0
##  8 TreeCreeper           5     8     4     3     0      4     2      3      2
##  9 Blackbird             3     3     1     6     3     14     7      8      8
## 10 Siskin                3     2     2     2     7      2     3      5      4
## # ℹ 21 more rows
…
