5 Classifying with kNN | Machine Learning for Environmental Science: Notes for ESCI 506
…
Let’s take a look at that object of predictions.

table(wbcd_test_pred)

## wbcd_test_pred
##    Benign Malignant 
##        67        33

There are 100 predictions and 64 times the case was classified as Benign and 36 times as Malignant. Because these are the test data we know the real answers for each of these cases. E.g.,:

tibble(preds = wbcd_test_pred, truth = wbcd_test_labels)

## # A tibble: 100 × 2
##    preds     truth    
##    <fct>     <fct>    
##  1 Benign    Benign   
##  2 Benign    Benign   
##  3 Benign    Benign   
##  4 Benign    Benign   
##  5 Benign    Benign   
##  6 Benign    Benign   
##  7 Benign    Benign   
##  8 Malignant Malignant
##  9 Malignant Malignant
## 10 Benign    Benign   
## # ℹ 90 more rows
…
