11 Eigen Faces | Machine Learning for Environmental Science: Notes for ESCI 506
…
Identifying new instances of known subjects (people, plants, types of coffee mugs, whatever) is really common task in machine learning. So, let’s use the faces data and PCA to identify people with are known to the system but with pictures we haven’t seen before. This is a classic train and test situation.

11.8.1 Train/Test

We will start by pulling two random pix of each person for a test data set and leaving the other eight in for training.

testVec <- sample(1:10,2)
for(i in 1:39){
  base <- i*10
  testVec <- c(testVec,sample((base+1):(base+10),2))
}
# test images
ids[testVec,]

## # A tibble: 80 × 2
##    person    rep  
##    <chr>     <chr>
##  1 subject01 v02  
##  2 subject01 v01  
##  3 subject02 v04  
##  4 subject02 v09  
##  5 subject03 v07  
##  6 subject03 v06  
##  7 subject04 v05  
##  8 subject04 v01  
##  9 subject05 v07  
## 10 subject05 v01  
## # ℹ 70 more rows

# train images
ids[-testVec,]

## # A tibble: 320 × 2
##    person    rep  
##    <chr>     <chr>
##  1 subject01 v03  
##  2 subject01 v04  
##  3 subject01 v05  
##  4 subject01 v06  
##  5 subject01 v07  
##  6 subject01 v08  
##  7 subject01 v09  
##  8 subject01 v10  
##  9 subject02 v01  
## 10 subject02 v02  
## # ℹ 310 more rows
…
